<svg xmlns="http://www.w3.org/2000/svg" width="28" height="67.763" viewBox="0 0 28 67.763">
  <g id="Group_978" data-name="Group 978" transform="translate(-2400 -833)">
    <g id="Rectangle_71" data-name="Rectangle 71" transform="translate(2400 833)" fill="none" stroke="#707070" stroke-width="2">
      <rect width="28" height="50" rx="14" stroke="none"/>
      <rect x="1" y="1" width="26" height="48" rx="13" fill="none"/>
    </g>
    <rect id="Rectangle_72" data-name="Rectangle 72" width="4" height="11" rx="2" transform="translate(2412 841)" fill="#707070"/>
    <path id="Path_5562" data-name="Path 5562" d="M2407.073,953.492l10.528,8.917,10.528-8.917" transform="translate(-3.664 -62.408)" fill="none" stroke="#707070" stroke-linecap="round" stroke-linejoin="bevel" stroke-width="2"/>
  </g>
</svg>
